#VRML V2.0 utf8
#modeled using blender3d http://blender.org

# 'CONN8'
Shape {
	appearance Appearance {
		material Material {
		}
	}
	geometry IndexedFaceSet {
		coord Coordinate {
			point [ -4.064002 -1.170000 0.000000 -4.064002 -1.170000 1.340000 -4.064002 1.170000 0.000000 -4.064002 1.170000 1.340000 4.064002 -1.170000 0.000000 4.064002 -1.170000 1.340000 4.064002 1.170000 0.000000 4.064002 1.170000 1.340000 -4.064002 0.800000 0.000000 -4.064002 0.800000 1.340000 4.064002 0.800000 0.000000 4.064002 0.800000 1.340000 -4.064002 0.800000 4.620000 -4.064002 1.170000 4.620000 4.064002 1.170000 4.620000 4.064002 0.800000 4.620000 4.064002 1.170000 2.546995 4.064002 1.170000 3.413005 4.064002 0.800000 3.413005 4.064002 0.800000 2.546995 -4.064002 0.800000 2.546995 -4.064002 0.800000 3.413005 -4.064002 1.170000 3.413005 -4.064002 1.170000 2.546995 4.064002 0.605197 3.187070 4.064002 0.605197 2.772930 -4.064002 0.605197 2.772930 -4.064002 0.605197 3.187070 -3.695997 -0.140007 -1.128646 -3.624642 -0.068653 -1.200000 -3.695997 -0.140007 3.328645 -3.624642 -0.068653 3.400000 -3.695997 0.139993 -1.128646 -3.624642 0.068638 -1.200000 -3.695997 0.139993 3.328645 -3.624642 0.068638 3.400000 -3.415997 -0.140007 -1.128646 -3.487351 -0.068653 -1.200000 -3.415997 -0.140007 3.328645 -3.487351 -0.068653 3.400000 -3.415997 0.139993 -1.128646 -3.487351 0.068638 -1.200000 -3.415997 0.139993 3.328645 -3.487351 0.068638 3.400000 -2.679997 -0.140007 -1.128646 -2.608643 -0.068653 -1.200000 -2.679997 -0.140007 3.328645 -2.608643 -0.068653 3.400000 -2.679997 0.139993 -1.128646 -2.608643 0.068638 -1.200000 -2.679997 0.139993 3.328645 -2.608643 0.068638 3.400000 -2.399997 -0.140007 -1.128646 -2.471351 -0.068653 -1.200000 -2.399997 -0.140007 3.328645 -2.471351 -0.068653 3.400000 -2.399997 0.139993 -1.128646 -2.471351 0.068638 -1.200000 -2.399997 0.139993 3.328645 -2.471351 0.068638 3.400000 -1.663997 -0.140007 -1.128646 -1.592642 -0.068653 -1.200000 -1.663997 -0.140007 3.328645 -1.592642 -0.068653 3.400000 -1.663997 0.139993 -1.128646 -1.592642 0.068638 -1.200000 -1.663997 0.139993 3.328645 -1.592642 0.068638 3.400000 -1.383997 -0.140007 -1.128646 -1.455351 -0.068653 -1.200000 -1.383997 -0.140007 3.328645 -1.455351 -0.068653 3.400000 -1.383997 0.139993 -1.128646 -1.455351 0.068638 -1.200000 -1.383997 0.139993 3.328645 -1.455351 0.068638 3.400000 -0.647997 -0.140007 -1.128646 -0.576642 -0.068653 -1.200000 -0.647997 -0.140007 3.328645 -0.576642 -0.068653 3.400000 -0.647997 0.139993 -1.128646 -0.576642 0.068638 -1.200000 -0.647997 0.139993 3.328645 -0.576642 0.068638 3.400000 -0.367997 -0.140007 -1.128646 -0.439351 -0.068653 -1.200000 -0.367997 -0.140007 3.328645 -0.439351 -0.068653 3.400000 -0.367997 0.139993 -1.128646 -0.439351 0.068638 -1.200000 -0.367997 0.139993 3.328645 -0.439351 0.068638 3.400000 0.368003 -0.140007 -1.128646 0.439358 -0.068653 -1.200000 0.368003 -0.140007 3.328645 0.439358 -0.068653 3.400000 0.368003 0.139993 -1.128646 0.439358 0.068638 -1.200000 0.368003 0.139993 3.328645 0.439358 0.068638 3.400000 0.648003 -0.140007 -1.128646 0.576649 -0.068653 -1.200000 0.648003 -0.140007 3.328645 0.576649 -0.068653 3.400000 0.648003 0.139993 -1.128646 0.576649 0.068638 -1.200000 0.648003 0.139993 3.328645 0.576649 0.068638 3.400000 1.384003 -0.140007 -1.128646 1.455358 -0.068653 -1.200000 1.384003 -0.140007 3.328645 1.455358 -0.068653 3.400000 1.384003 0.139993 -1.128646 1.455358 0.068638 -1.200000 1.384003 0.139993 3.328645 1.455358 0.068638 3.400000 1.664003 -0.140007 -1.128646 1.592649 -0.068653 -1.200000 1.664003 -0.140007 3.328645 1.592649 -0.068653 3.400000 1.664003 0.139993 -1.128646 1.592649 0.068638 -1.200000 1.664003 0.139993 3.328645 1.592649 0.068638 3.400000 2.400003 -0.140007 -1.128646 2.471358 -0.068653 -1.200000 2.400003 -0.140007 3.328645 2.471358 -0.068653 3.400000 2.400003 0.139993 -1.128646 2.471358 0.068638 -1.200000 2.400003 0.139993 3.328645 2.471358 0.068638 3.400000 2.680003 -0.140007 -1.128646 2.608649 -0.068653 -1.200000 2.680003 -0.140007 3.328645 2.608649 -0.068653 3.400000 2.680003 0.139993 -1.128646 2.608649 0.068638 -1.200000 2.680003 0.139993 3.328645 2.608649 0.068638 3.400000 3.416003 -0.140007 -1.128646 3.487357 -0.068653 -1.200000 3.416003 -0.140007 3.328645 3.487357 -0.068653 3.400000 3.416003 0.139993 -1.128646 3.487357 0.068638 -1.200000 3.416003 0.139993 3.328645 3.487357 0.068638 3.400000 3.696003 -0.140007 -1.128646 3.624649 -0.068653 -1.200000 3.696003 -0.140007 3.328645 3.624649 -0.068653 3.400000 3.696003 0.139993 -1.128646 3.624649 0.068638 -1.200000 3.696003 0.139993 3.328645 3.624649 0.068638 3.400000 ]
		}
		colorPerVertex FALSE
		color Color {
			color [ 0.80 0.72 0.50 0.80 0.80 0.80 0.10 0.10 0.10 ]
		}
		colorIndex [ 0 0 0 0 0 0 0 0 0 0 0 0 0 0 0 0 0 0 0 0 0 0 0 0 0 0 1 1 1 1 1 1 1 1 1 1 1 1 1 1 1 1 1 1 1 1 1 1 1 1 1 1 1 1 1 1 1 1 1 1 1 1 1 1 1 1 1 1 1 1 1 1 1 1 1 1 1 1 1 1 1 1 1 1 1 1 1 1 1 1 1 1 1 1 1 1 1 1 1 1 1 1 1 1 1 1 1 1 1 1 1 1 1 1 1 1 1 1 1 1 1 1 1 1 1 1 1 1 1 1 1 1 1 1 1 1 1 1 0 0 0 0 0 0 0 0 0 0 0 0 0 0 0 0 0 0 0 0 0 0 0 0 0 0 1 1 1 1 1 1 1 1 1 1 1 1 1 1 1 1 1 1 1 1 1 1 1 1 1 1 1 1 1 1 1 1 1 1 1 1 1 1 1 1 1 1 1 1 1 1 1 1 1 1 1 1 1 1 1 1 1 1 1 1 1 1 1 1 1 1 1 1 1 1 1 1 1 1 1 1 1 1 1 1 1 1 1 1 1 1 1 1 1 1 1 1 1 1 1 1 1 1 1 1 1 1 1 1 1 1 1 1 1 1 1 1 ]
		coordIndex [ 9 2 8 -1 3 6 2 -1 11 4 10 -1 5 0 4 -1 10 0 8 -1 9 5 11 -1 17 15 18 -1 6 8 2 -1 7 10 6 -1 1 8 0 -1 13 15 14 -1 21 13 22 -1 22 14 17 -1 18 12 21 -1 11 20 9 -1 21 24 18 -1 3 16 7 -1 23 17 16 -1 9 23 3 -1 20 22 23 -1 7 19 11 -1 16 18 19 -1 25 27 26 -1 20 27 21 -1 18 25 19 -1 19 26 20 -1 33 37 29 -1 38 40 42 -1 43 31 39 -1 30 36 38 -1 42 32 34 -1 35 30 31 -1 29 32 33 -1 35 42 34 -1 33 40 41 -1 39 42 43 -1 41 36 37 -1 31 38 39 -1 37 28 29 -1 34 28 30 -1 49 53 45 -1 54 56 58 -1 59 47 55 -1 46 52 54 -1 58 48 50 -1 51 46 47 -1 45 48 49 -1 59 50 51 -1 49 56 57 -1 55 58 59 -1 57 52 53 -1 47 54 55 -1 45 52 44 -1 50 44 46 -1 65 69 61 -1 70 72 74 -1 75 63 71 -1 62 68 70 -1 74 64 66 -1 67 62 63 -1 61 64 65 -1 75 66 67 -1 65 72 73 -1 71 74 75 -1 73 68 69 -1 63 70 71 -1 61 68 60 -1 66 60 62 -1 81 85 77 -1 86 88 90 -1 91 79 87 -1 78 84 86 -1 90 80 82 -1 83 78 79 -1 77 80 81 -1 83 90 82 -1 81 88 89 -1 87 90 91 -1 89 84 85 -1 79 86 87 -1 77 84 76 -1 82 76 78 -1 97 101 93 -1 102 104 106 -1 107 95 103 -1 94 100 102 -1 106 96 98 -1 99 94 95 -1 93 96 97 -1 99 106 98 -1 97 104 105 -1 103 106 107 -1 105 100 101 -1 95 102 103 -1 101 92 93 -1 98 92 94 -1 113 117 109 -1 118 120 122 -1 123 111 119 -1 110 116 118 -1 122 112 114 -1 115 110 111 -1 109 112 113 -1 115 122 114 -1 113 120 121 -1 119 122 123 -1 121 116 117 -1 111 118 119 -1 117 108 109 -1 114 108 110 -1 129 133 125 -1 134 136 138 -1 139 127 135 -1 126 132 134 -1 138 128 130 -1 131 126 127 -1 125 128 129 -1 131 138 130 -1 129 136 137 -1 135 138 139 -1 137 132 133 -1 127 134 135 -1 133 124 125 -1 130 124 126 -1 145 149 141 -1 150 152 154 -1 155 143 151 -1 142 148 150 -1 154 144 146 -1 147 142 143 -1 141 144 145 -1 155 146 147 -1 145 152 153 -1 151 154 155 -1 153 148 149 -1 143 150 151 -1 149 140 141 -1 146 140 142 -1 9 3 2 -1 3 7 6 -1 11 5 4 -1 5 1 0 -1 10 4 0 -1 9 1 5 -1 17 14 15 -1 6 10 8 -1 7 11 10 -1 1 9 8 -1 13 12 15 -1 21 12 13 -1 22 13 14 -1 18 15 12 -1 11 19 20 -1 21 27 24 -1 3 23 16 -1 23 22 17 -1 9 20 23 -1 20 21 22 -1 7 16 19 -1 16 17 18 -1 25 24 27 -1 20 26 27 -1 18 24 25 -1 19 25 26 -1 33 41 37 -1 38 36 40 -1 43 35 31 -1 30 28 36 -1 42 40 32 -1 35 34 30 -1 29 28 32 -1 35 43 42 -1 33 32 40 -1 39 38 42 -1 41 40 36 -1 31 30 38 -1 37 36 28 -1 34 32 28 -1 49 57 53 -1 54 52 56 -1 59 51 47 -1 46 44 52 -1 58 56 48 -1 51 50 46 -1 45 44 48 -1 59 58 50 -1 49 48 56 -1 55 54 58 -1 57 56 52 -1 47 46 54 -1 45 53 52 -1 50 48 44 -1 65 73 69 -1 70 68 72 -1 75 67 63 -1 62 60 68 -1 74 72 64 -1 67 66 62 -1 61 60 64 -1 75 74 66 -1 65 64 72 -1 71 70 74 -1 73 72 68 -1 63 62 70 -1 61 69 68 -1 66 64 60 -1 81 89 85 -1 86 84 88 -1 91 83 79 -1 78 76 84 -1 90 88 80 -1 83 82 78 -1 77 76 80 -1 83 91 90 -1 81 80 88 -1 87 86 90 -1 89 88 84 -1 79 78 86 -1 77 85 84 -1 82 80 76 -1 97 105 101 -1 102 100 104 -1 107 99 95 -1 94 92 100 -1 106 104 96 -1 99 98 94 -1 93 92 96 -1 99 107 106 -1 97 96 104 -1 103 102 106 -1 105 104 100 -1 95 94 102 -1 101 100 92 -1 98 96 92 -1 113 121 117 -1 118 116 120 -1 123 115 111 -1 110 108 116 -1 122 120 112 -1 115 114 110 -1 109 108 112 -1 115 123 122 -1 113 112 120 -1 119 118 122 -1 121 120 116 -1 111 110 118 -1 117 116 108 -1 114 112 108 -1 129 137 133 -1 134 132 136 -1 139 131 127 -1 126 124 132 -1 138 136 128 -1 131 130 126 -1 125 124 128 -1 131 139 138 -1 129 128 136 -1 135 134 138 -1 137 136 132 -1 127 126 134 -1 133 132 124 -1 130 128 124 -1 145 153 149 -1 150 148 152 -1 155 147 143 -1 142 140 148 -1 154 152 144 -1 147 146 142 -1 141 140 144 -1 155 154 146 -1 145 144 152 -1 151 150 154 -1 153 152 148 -1 143 142 150 -1 149 148 140 -1 146 144 140 -1 ]
	}
}
