#VRML V2.0 utf8
#Exported from Wings 3D 1.4.1
DEF SIL3_CubeCO007 Transform {
  children [
    Shape {
      appearance Appearance {
        material DEF Pins Material {
          diffuseColor 0.75358 0.75358 0.75358
          emissiveColor 0.0 0.0 0.0
          specularColor 0.5 0.5 0.5
          ambientIntensity 0.7469199999999999
          transparency 0.0
          shininess 1.0
        }
      }
      geometry IndexedFaceSet {
        normalPerVertex TRUE
        coord Coordinate { point [
          -1.156 -1.128646 0.14,
          -1.084646 -1.2 0.068646,
          -1.156 3.328645 0.14,
          -1.084646 3.4 0.068646,
          -1.156 -1.128646 -0.14,
          -1.084646 -1.2 -0.068646,
          -1.156 3.328645 -0.14,
          -1.084646 3.4 -0.068646,
          -0.876 -1.128646 0.14,
          -0.947354 -1.2 0.068646,
          -0.876 3.328645 0.14,
          -0.947354 3.4 0.068646,
          -0.876 -1.128646 -0.14,
          -0.947354 -1.2 -0.068646,
          -0.876 3.328645 -0.14,
          -0.947354 3.4 -0.068646,
          -0.14 -1.128646 0.14,
          -0.068645 -1.2 0.068646,
          -0.14 3.328645 0.14,
          -0.068645 3.4 0.068646,
          -0.14 -1.128646 -0.14,
          -0.068645 -1.2 -0.068646,
          -0.14 3.328645 -0.14,
          -0.068645 3.4 -0.068646,
          0.14 -1.128646 0.14,
          0.068646 -1.2 0.068646,
          0.14 3.328645 0.14,
          0.068646 3.4 0.068646,
          0.14 -1.128646 -0.14,
          0.068646 -1.2 -0.068646,
          0.14 3.328645 -0.14,
          0.068646 3.4 -0.068646,
          0.876 -1.128646 0.14,
          0.947355 -1.2 0.068646,
          0.876 3.328645 0.14,
          0.947355 3.4 0.068646,
          0.876 -1.128646 -0.14,
          0.947355 -1.2 -0.068646,
          0.876 3.328645 -0.14,
          0.947355 3.4 -0.068646,
          1.156 -1.128646 0.14,
          1.084646 -1.2 0.068646,
          1.156 3.328645 0.14,
          1.084646 3.4 0.068646,
          1.156 -1.128646 -0.14,
          1.084646 -1.2 -0.068646,
          1.156 3.328645 -0.14,
          1.084646 3.4 -0.068646 ] }
        coordIndex [
          0, 1, 9, -1,
          0, 2, 6, -1,
          0, 4, 1, -1,
          0, 6, 4, -1,
          0, 8, 2, -1,
          0, 9, 8, -1,
          1, 4, 5, -1,
          1, 5, 9, -1,
          2, 3, 7, -1,
          2, 7, 6, -1,
          2, 8, 10, -1,
          2, 10, 11, -1,
          2, 11, 3, -1,
          3, 11, 15, -1,
          3, 15, 7, -1,
          4, 6, 14, -1,
          4, 12, 5, -1,
          4, 14, 12, -1,
          5, 12, 13, -1,
          5, 13, 9, -1,
          6, 7, 15, -1,
          6, 15, 14, -1,
          8, 9, 13, -1,
          8, 12, 10, -1,
          8, 13, 12, -1,
          10, 12, 14, -1,
          10, 14, 11, -1,
          11, 14, 15, -1,
          16, 17, 25, -1,
          16, 18, 22, -1,
          16, 20, 17, -1,
          16, 22, 20, -1,
          16, 24, 18, -1,
          16, 25, 24, -1,
          17, 20, 21, -1,
          17, 21, 25, -1,
          18, 19, 23, -1,
          18, 23, 22, -1,
          18, 24, 26, -1,
          18, 26, 19, -1,
          19, 26, 27, -1,
          19, 27, 31, -1,
          19, 31, 23, -1,
          20, 22, 30, -1,
          20, 28, 21, -1,
          20, 30, 28, -1,
          21, 28, 29, -1,
          21, 29, 25, -1,
          22, 23, 31, -1,
          22, 31, 30, -1,
          24, 25, 28, -1,
          24, 28, 26, -1,
          25, 29, 28, -1,
          26, 28, 30, -1,
          26, 30, 31, -1,
          26, 31, 27, -1,
          32, 33, 41, -1,
          32, 34, 38, -1,
          32, 36, 33, -1,
          32, 38, 36, -1,
          32, 40, 34, -1,
          32, 41, 40, -1,
          33, 36, 37, -1,
          33, 37, 41, -1,
          34, 35, 38, -1,
          34, 40, 42, -1,
          34, 42, 35, -1,
          35, 39, 38, -1,
          35, 42, 43, -1,
          35, 43, 47, -1,
          35, 47, 39, -1,
          36, 38, 46, -1,
          36, 44, 37, -1,
          36, 46, 44, -1,
          37, 44, 45, -1,
          37, 45, 41, -1,
          38, 39, 47, -1,
          38, 47, 46, -1,
          40, 41, 45, -1,
          40, 44, 42, -1,
          40, 45, 44, -1,
          42, 44, 46, -1,
          42, 46, 47, -1,
          42, 47, 43, -1 ]
        normal Normal { vector [
          0.0 0.0 1.0,
          -0.7071067811865462 -0.7071067811865487 0.0,
          0.0 -0.7071067811865471 0.707106781186548,
          -1.0 0.0 0.0,
          0.0 -0.7071067811865476 0.7071067811865476,
          -1.0 0.0 0.0,
          -0.7071067811865462 -0.7071067811865487 0.0,
          0.0 -1.0 0.0,
          -0.7071067811865487 -0.7071067811865464 0.0,
          0.0 -0.7071067811865476 0.7071067811865476,
          0.0 0.0 1.0,
          -0.7071117360548721 0.7071018262835028 0.0,
          0.0 0.7071018262835 0.7071117360548748,
          0.0 0.0 1.0,
          -0.707111736054873 0.7071018262835019 0.0,
          0.0 0.707101826283499 0.7071117360548759,
          -1.0 0.0 0.0,
          0.0 1.0 0.0,
          0.0 0.7071018262835 0.7071117360548748,
          0.0 1.0 0.0,
          -0.707111736054873 0.7071018262835019 0.0,
          0.0 0.0 -1.0,
          -0.7071067811865462 -0.7071067811865487 0.0,
          0.0 -0.7071067811865475 -0.7071067811865475,
          -1.0 0.0 0.0,
          0.0 0.0 -1.0,
          -0.7071067811865487 -0.7071067811865464 0.0,
          0.0 -1.0 0.0,
          0.0 -0.7071067811865475 -0.7071067811865475,
          0.0 -1.0 0.0,
          -0.7071067811865487 -0.7071067811865464 0.0,
          0.0 -0.7071067811865466 -0.7071067811865486,
          -0.7071117360548721 0.7071018262835028 0.0,
          0.0 0.707101826283499 -0.7071117360548759,
          -1.0 0.0 0.0,
          0.0 0.0 -1.0,
          0.0 0.7071018262835 -0.7071117360548748,
          -1.0 0.0 0.0,
          0.0 1.0 0.0,
          -0.7071117360548721 0.7071018262835028 0.0,
          -0.707111736054873 0.7071018262835019 0.0,
          0.0 0.7071018262835 -0.7071117360548748,
          1.0 0.0 0.0,
          0.0 0.0 1.0,
          0.7071067811865458 -0.7071067811865492 0.0,
          0.0 -0.7071067811865471 0.707106781186548,
          0.0 0.0 1.0,
          0.7071067811865477 -0.7071067811865474 0.0,
          0.0 -1.0 0.0,
          0.0 -0.7071067811865471 0.707106781186548,
          0.0 -1.0 0.0,
          0.7071067811865477 -0.7071067811865474 0.0,
          0.0 -0.7071067811865476 0.7071067811865476,
          1.0 0.0 0.0,
          0.7071117360548715 0.7071018262835033 0.0,
          1.0 0.0 0.0,
          0.0 0.0 1.0,
          0.0 0.707101826283499 0.7071117360548759,
          0.7071117360548715 0.7071018262835033 0.0,
          0.0 0.7071018262835 0.7071117360548748,
          0.0 1.0 0.0,
          0.7071117360548719 0.7071018262835029 0.0,
          0.0 0.707101826283499 0.7071117360548759,
          1.0 0.0 0.0,
          0.0 0.0 -1.0,
          0.0 -0.7071067811865475 -0.7071067811865475,
          0.7071067811865458 -0.7071067811865492 0.0,
          1.0 0.0 0.0,
          0.0 -0.7071067811865466 -0.7071067811865486,
          0.0 -1.0 0.0,
          0.7071067811865458 -0.7071067811865492 0.0,
          0.0 -0.7071067811865466 -0.7071067811865486,
          0.7071067811865477 -0.7071067811865474 0.0,
          0.0 0.0 -1.0,
          0.0 0.707101826283499 -0.7071117360548759,
          0.7071117360548715 0.7071018262835033 0.0,
          1.0 0.0 0.0,
          0.0 0.0 -1.0,
          0.7071117360548719 0.7071018262835029 0.0,
          0.0 1.0 0.0,
          0.0 0.707101826283499 -0.7071117360548759,
          0.0 1.0 0.0,
          0.0 0.7071018262835 -0.7071117360548748,
          0.7071117360548719 0.7071018262835029 0.0,
          0.0 0.0 1.0,
          -0.7071018262835024 -0.7071117360548725 0.0,
          0.0 -0.7071067811865493 0.7071067811865459,
          -1.0 0.0 0.0,
          0.0 -0.7071067811865468 0.7071067811865482,
          -1.0 0.0 0.0,
          -0.7071018262835024 -0.7071117360548725 0.0,
          0.0 -1.0 0.0,
          -0.7071018262835024 -0.7071117360548725 0.0,
          0.0 -0.7071067811865468 0.7071067811865482,
          0.0 0.0 1.0,
          -0.7071067811865478 0.7071067811865474 0.0,
          0.0 0.7071018262834993 0.7071117360548755,
          0.0 0.0 1.0,
          -0.7071067811865478 0.7071067811865474 0.0,
          -1.0 0.0 0.0,
          0.0 1.0 0.0,
          0.0 0.7071018262834993 0.7071117360548755,
          0.0 1.0 0.0,
          -0.7071067811865478 0.7071067811865474 0.0,
          0.0 0.7071018262835075 0.7071117360548673,
          0.0 0.0 -1.0,
          -0.7071018262835024 -0.7071117360548725 0.0,
          0.0 -0.7071067811865483 -0.7071067811865467,
          -1.0 0.0 0.0,
          0.0 0.0 -1.0,
          -0.7071018262835024 -0.7071117360548725 0.0,
          0.0 -1.0 0.0,
          0.0 -0.7071067811865483 -0.7071067811865467,
          0.0 -1.0 0.0,
          -0.7071018262835024 -0.7071117360548725 0.0,
          0.0 -0.7071067811865487 -0.7071067811865464,
          -0.7071067811865478 0.7071067811865474 0.0,
          0.0 0.7071018262835033 -0.7071117360548717,
          -1.0 0.0 0.0,
          0.0 0.0 -1.0,
          0.0 0.7071018262835035 -0.7071117360548712,
          -1.0 0.0 0.0,
          0.0 1.0 0.0,
          -0.7071067811865478 0.7071067811865474 0.0,
          -0.7071067811865478 0.7071067811865474 0.0,
          0.0 0.7071018262835035 -0.7071117360548712,
          1.0 0.0 0.0,
          0.0 0.0 1.0,
          0.0 -0.7071067811865493 0.7071067811865459,
          0.0 0.0 1.0,
          0.7071067811865469 -0.707106781186548 0.0,
          0.0 -1.0 0.0,
          0.7071067811865469 -0.707106781186548 0.0,
          0.0 -0.7071067811865493 0.7071067811865459,
          0.0 -1.0 0.0,
          0.7071067811865469 -0.707106781186548 0.0,
          0.0 -0.7071067811865468 0.7071067811865482,
          1.0 0.0 0.0,
          0.7071117360548723 0.7071018262835026 0.0,
          0.0 0.7071018262834993 0.7071117360548755,
          1.0 0.0 0.0,
          0.0 0.0 1.0,
          0.7071117360548723 0.7071018262835026 0.0,
          0.0 0.7071018262835075 0.7071117360548673,
          0.7071117360548723 0.7071018262835026 0.0,
          0.0 1.0 0.0,
          0.0 0.7071018262835075 0.7071117360548673,
          1.0 0.0 0.0,
          0.0 0.0 -1.0,
          0.0 -0.7071067811865483 -0.7071067811865467,
          0.7071067811865469 -0.707106781186548 0.0,
          1.0 0.0 0.0,
          0.0 -0.7071067811865487 -0.7071067811865464,
          0.7071067811865469 -0.707106781186548 0.0,
          0.0 -1.0 0.0,
          0.7071067811865469 -0.707106781186548 0.0,
          0.0 -0.7071067811865487 -0.7071067811865464,
          0.0 0.0 -1.0,
          0.0 0.7071018262835033 -0.7071117360548717,
          1.0 0.0 0.0,
          0.0 0.0 -1.0,
          0.7071117360548723 0.7071018262835026 0.0,
          0.0 1.0 0.0,
          0.0 0.7071018262835033 -0.7071117360548717,
          0.7071117360548723 0.7071018262835026 0.0,
          0.0 1.0 0.0,
          0.0 0.7071018262835035 -0.7071117360548712,
          0.7071117360548723 0.7071018262835026 0.0,
          0.0 0.0 1.0,
          -0.7071018262835036 -0.7071117360548711 0.0,
          0.0 -0.7071067811865471 0.707106781186548,
          -1.0 0.0 0.0,
          0.0 -0.7071067811865465 0.7071067811865485,
          -1.0 0.0 0.0,
          -0.7071018262835036 -0.7071117360548711 0.0,
          0.0 -1.0 0.0,
          -0.7071018262835024 -0.7071117360548725 0.0,
          0.0 -0.7071067811865465 0.7071067811865485,
          0.0 0.0 1.0,
          0.0 0.7071018262835 0.7071117360548749,
          0.0 0.0 1.0,
          -0.7071067811865491 0.7071067811865459 0.0,
          -1.0 0.0 0.0,
          0.0 1.0 0.0,
          -0.7071067811865477 0.7071067811865474 0.0,
          0.0 0.7071018262835 0.7071117360548749,
          0.0 1.0 0.0,
          -0.7071067811865491 0.7071067811865459 0.0,
          0.0 0.7071018262835004 0.7071117360548745,
          0.0 0.0 -1.0,
          -0.7071018262835036 -0.7071117360548711 0.0,
          0.0 -0.7071067811865466 -0.7071067811865486,
          -1.0 0.0 0.0,
          0.0 0.0 -1.0,
          -0.7071018262835024 -0.7071117360548725 0.0,
          0.0 -1.0 0.0,
          0.0 -0.7071067811865466 -0.7071067811865486,
          0.0 -1.0 0.0,
          -0.7071018262835024 -0.7071117360548725 0.0,
          0.0 -0.7071067811865495 -0.7071067811865455,
          -0.7071067811865477 0.7071067811865474 0.0,
          0.0 0.707101826283499 -0.7071117360548759,
          -1.0 0.0 0.0,
          0.0 0.0 -1.0,
          -0.7071067811865491 0.7071067811865459 0.0,
          0.0 0.7071018262835064 -0.7071117360548685,
          -1.0 0.0 0.0,
          0.0 1.0 0.0,
          -0.7071067811865477 0.7071067811865474 0.0,
          0.0 0.7071018262835064 -0.7071117360548685,
          1.0 0.0 0.0,
          0.0 0.0 1.0,
          0.7071067811865468 -0.7071067811865482 0.0,
          0.0 -0.7071067811865471 0.707106781186548,
          0.0 0.0 1.0,
          0.7071067811865477 -0.7071067811865474 0.0,
          0.0 -1.0 0.0,
          0.0 -0.7071067811865471 0.707106781186548,
          0.0 -1.0 0.0,
          0.7071067811865477 -0.7071067811865474 0.0,
          0.0 -0.7071067811865465 0.7071067811865485,
          1.0 0.0 0.0,
          0.707111736054873 0.7071018262835019 0.0,
          0.0 0.7071018262835 0.7071117360548749,
          1.0 0.0 0.0,
          0.0 0.0 1.0,
          0.7071117360548721 0.7071018262835028 0.0,
          0.0 0.7071018262835004 0.7071117360548745,
          0.707111736054873 0.7071018262835019 0.0,
          0.0 1.0 0.0,
          0.0 0.7071018262835004 0.7071117360548745,
          1.0 0.0 0.0,
          0.0 0.0 -1.0,
          0.0 -0.7071067811865466 -0.7071067811865486,
          0.7071067811865468 -0.7071067811865482 0.0,
          1.0 0.0 0.0,
          0.0 -0.7071067811865495 -0.7071067811865455,
          0.0 -1.0 0.0,
          0.7071067811865468 -0.7071067811865482 0.0,
          0.0 -0.7071067811865495 -0.7071067811865455,
          0.7071067811865477 -0.7071067811865474 0.0,
          0.0 0.0 -1.0,
          0.0 0.707101826283499 -0.7071117360548759,
          1.0 0.0 0.0,
          0.0 0.0 -1.0,
          0.7071117360548721 0.7071018262835028 0.0,
          0.0 1.0 0.0,
          0.0 0.707101826283499 -0.7071117360548759,
          0.707111736054873 0.7071018262835019 0.0,
          0.0 1.0 0.0,
          0.0 0.7071018262835064 -0.7071117360548685,
          0.7071117360548721 0.7071018262835028 0.0 ] }
        normalIndex [
          4, 9, 52, -1,
          5, 16, 37, -1,
          1, 22, 6, -1,
          3, 34, 24, -1,
          0, 43, 10, -1,
          2, 49, 45, -1,
          8, 26, 30, -1,
          7, 29, 50, -1,
          14, 20, 40, -1,
          11, 39, 32, -1,
          13, 46, 56, -1,
          15, 57, 62, -1,
          12, 59, 18, -1,
          19, 60, 81, -1,
          17, 79, 38, -1,
          25, 35, 77, -1,
          23, 65, 28, -1,
          21, 73, 64, -1,
          31, 68, 71, -1,
          27, 69, 48, -1,
          36, 41, 82, -1,
          33, 80, 74, -1,
          47, 51, 72, -1,
          42, 63, 53, -1,
          44, 70, 66, -1,
          55, 67, 76, -1,
          54, 75, 58, -1,
          61, 78, 83, -1,
          88, 93, 136, -1,
          89, 99, 121, -1,
          85, 106, 90, -1,
          87, 118, 108, -1,
          84, 127, 94, -1,
          86, 133, 128, -1,
          92, 110, 114, -1,
          91, 113, 134, -1,
          98, 103, 124, -1,
          95, 123, 116, -1,
          97, 129, 141, -1,
          96, 139, 101, -1,
          104, 143, 146, -1,
          102, 145, 165, -1,
          100, 162, 122, -1,
          109, 119, 160, -1,
          107, 149, 112, -1,
          105, 157, 148, -1,
          115, 152, 156, -1,
          111, 154, 131, -1,
          120, 125, 166, -1,
          117, 163, 158, -1,
          130, 135, 153, -1,
          126, 147, 137, -1,
          132, 155, 150, -1,
          140, 151, 159, -1,
          142, 161, 167, -1,
          138, 164, 144, -1,
          172, 177, 220, -1,
          173, 182, 206, -1,
          169, 190, 174, -1,
          171, 202, 192, -1,
          168, 211, 178, -1,
          170, 217, 213, -1,
          176, 194, 198, -1,
          175, 197, 218, -1,
          181, 187, 204, -1,
          180, 214, 225, -1,
          179, 223, 185, -1,
          184, 208, 200, -1,
          188, 227, 230, -1,
          186, 229, 249, -1,
          183, 246, 207, -1,
          193, 203, 244, -1,
          191, 233, 196, -1,
          189, 241, 232, -1,
          199, 236, 239, -1,
          195, 237, 216, -1,
          205, 209, 250, -1,
          201, 247, 242, -1,
          215, 219, 240, -1,
          210, 231, 221, -1,
          212, 238, 234, -1,
          224, 235, 243, -1,
          226, 245, 251, -1,
          222, 248, 228, -1 ]
      }
    },
    Shape {
      appearance Appearance {
        material DEF Black_Case Material {
          diffuseColor 0.16083999999999998 0.16083999999999998 0.16083999999999998
          emissiveColor 0.0 0.0 0.0
          specularColor 0.5 0.5 0.5
          ambientIntensity 0.16083999999999998
          transparency 0.0
          shininess 1.0
        }
      }
      geometry IndexedFaceSet {
        normalPerVertex TRUE
        coord Coordinate { point [
          -1.346354 0.0 0.508,
          -1.524 0.0 0.330354,
          -1.524 1.016 0.330354,
          -1.346354 1.016 0.508,
          -1.524 0.0 -0.330354,
          -1.346354 0.0 -0.508,
          -1.346354 1.016 -0.508,
          -1.524 1.016 -0.330354,
          -0.508 0.0 0.330354,
          -0.685646 0.0 0.508,
          -0.685646 1.016 0.508,
          -0.508 1.016 0.330354,
          -0.685646 0.0 -0.508,
          -0.508 0.0 -0.330354,
          -0.508 1.016 -0.330354,
          -0.685646 1.016 -0.508,
          -0.330353 0.0 0.508,
          -0.508 0.0 0.330354,
          -0.508 1.016 0.330354,
          -0.330353 1.016 0.508,
          -0.508 0.0 -0.330354,
          -0.330353 0.0 -0.508,
          -0.330353 1.016 -0.508,
          -0.508 1.016 -0.330354,
          0.508 0.0 0.330354,
          0.330354 0.0 0.508,
          0.330354 1.016 0.508,
          0.508 1.016 0.330354,
          0.330354 0.0 -0.508,
          0.508 0.0 -0.330354,
          0.508 1.016 -0.330354,
          0.330354 1.016 -0.508,
          0.685646 0.0 0.508,
          0.508 0.0 0.330354,
          0.508 1.016 0.330354,
          0.685646 1.016 0.508,
          0.508 0.0 -0.330354,
          0.685646 0.0 -0.508,
          0.685646 1.016 -0.508,
          0.508 1.016 -0.330354,
          1.524 0.0 0.330354,
          1.346354 0.0 0.508,
          1.346354 1.016 0.508,
          1.524 1.016 0.330354,
          1.346354 0.0 -0.508,
          1.524 0.0 -0.330354,
          1.524 1.016 -0.330354,
          1.346354 1.016 -0.508 ] }
        coordIndex [
          0, 1, 5, -1,
          0, 3, 1, -1,
          0, 5, 12, -1,
          0, 9, 3, -1,
          0, 12, 9, -1,
          1, 2, 7, -1,
          1, 3, 2, -1,
          1, 4, 5, -1,
          1, 7, 4, -1,
          2, 3, 7, -1,
          3, 6, 7, -1,
          3, 9, 10, -1,
          3, 10, 6, -1,
          4, 7, 5, -1,
          5, 6, 15, -1,
          5, 7, 6, -1,
          5, 15, 12, -1,
          6, 10, 15, -1,
          8, 9, 12, -1,
          8, 11, 9, -1,
          8, 12, 13, -1,
          8, 13, 11, -1,
          9, 11, 10, -1,
          10, 11, 14, -1,
          10, 14, 15, -1,
          11, 13, 14, -1,
          12, 15, 13, -1,
          13, 15, 14, -1,
          16, 17, 21, -1,
          16, 19, 17, -1,
          16, 21, 28, -1,
          16, 25, 19, -1,
          16, 28, 25, -1,
          17, 18, 23, -1,
          17, 19, 18, -1,
          17, 20, 21, -1,
          17, 23, 20, -1,
          18, 19, 23, -1,
          19, 22, 23, -1,
          19, 25, 26, -1,
          19, 26, 22, -1,
          20, 23, 21, -1,
          21, 22, 31, -1,
          21, 23, 22, -1,
          21, 31, 28, -1,
          22, 26, 31, -1,
          24, 25, 28, -1,
          24, 27, 25, -1,
          24, 28, 29, -1,
          24, 29, 27, -1,
          25, 27, 26, -1,
          26, 27, 30, -1,
          26, 30, 31, -1,
          27, 29, 30, -1,
          28, 31, 29, -1,
          29, 31, 30, -1,
          32, 33, 37, -1,
          32, 35, 33, -1,
          32, 37, 44, -1,
          32, 41, 35, -1,
          32, 44, 41, -1,
          33, 34, 39, -1,
          33, 35, 34, -1,
          33, 36, 37, -1,
          33, 39, 36, -1,
          34, 35, 39, -1,
          35, 38, 39, -1,
          35, 41, 42, -1,
          35, 42, 38, -1,
          36, 39, 37, -1,
          37, 38, 47, -1,
          37, 39, 38, -1,
          37, 47, 44, -1,
          38, 42, 47, -1,
          40, 41, 44, -1,
          40, 43, 41, -1,
          40, 44, 45, -1,
          40, 45, 43, -1,
          41, 43, 42, -1,
          42, 43, 46, -1,
          42, 46, 47, -1,
          43, 45, 46, -1,
          44, 47, 45, -1,
          45, 47, 46, -1 ]
        normal Normal { vector [
          0.0 0.0 1.0,
          0.0 -1.0 0.0,
          -0.7071067811865476 0.0 0.7071067811865474,
          0.0 -1.0 0.0,
          0.0 -1.0 0.0,
          -0.7071067811865476 0.0 0.7071067811865474,
          -1.0 0.0 0.0,
          0.0 -1.0 0.0,
          -0.7071067811865476 0.0 0.7071067811865474,
          -1.0 0.0 0.0,
          0.0 -1.0 0.0,
          0.0 1.0 0.0,
          -0.7071067811865476 0.0 0.7071067811865474,
          -1.0 0.0 0.0,
          0.0 1.0 0.0,
          0.0 1.0 0.0,
          0.0 0.0 1.0,
          -0.7071067811865476 0.0 0.7071067811865474,
          0.0 1.0 0.0,
          0.0 0.0 1.0,
          -0.7071067811865476 0.0 0.7071067811865474,
          -0.7071067811865476 0.0 -0.7071067811865474,
          -1.0 0.0 0.0,
          0.0 -1.0 0.0,
          0.0 0.0 -1.0,
          -0.7071067811865476 0.0 -0.7071067811865474,
          0.0 -1.0 0.0,
          0.0 0.0 -1.0,
          -0.7071067811865476 0.0 -0.7071067811865474,
          0.0 -1.0 0.0,
          0.0 -1.0 0.0,
          0.0 1.0 0.0,
          0.0 1.0 0.0,
          0.0 1.0 0.0,
          0.0 0.0 -1.0,
          -0.7071067811865476 0.0 -0.7071067811865474,
          0.0 1.0 0.0,
          -0.7071067811865476 0.0 -0.7071067811865474,
          -1.0 0.0 0.0,
          0.0 1.0 0.0,
          -0.7071067811865476 0.0 -0.7071067811865474,
          -1.0 0.0 0.0,
          1.0 0.0 0.0,
          0.7071067811865476 0.0 0.7071067811865474,
          0.0 -1.0 0.0,
          0.0 -1.0 0.0,
          0.0 0.0 1.0,
          0.7071067811865476 0.0 0.7071067811865474,
          0.0 -1.0 0.0,
          0.0 0.0 1.0,
          0.7071067811865476 0.0 0.7071067811865474,
          0.0 -1.0 0.0,
          0.0 1.0 0.0,
          0.0 1.0 0.0,
          0.0 1.0 0.0,
          0.0 1.0 0.0,
          0.0 0.0 1.0,
          0.7071067811865476 0.0 0.7071067811865474,
          1.0 0.0 0.0,
          0.0 1.0 0.0,
          0.7071067811865476 0.0 0.7071067811865474,
          1.0 0.0 0.0,
          0.7071067811865476 0.0 0.7071067811865474,
          0.0 0.0 -1.0,
          0.7071067811865476 0.0 -0.7071067811865474,
          0.0 -1.0 0.0,
          0.0 -1.0 0.0,
          0.0 -1.0 0.0,
          0.0 -1.0 0.0,
          1.0 0.0 0.0,
          0.7071067811865476 0.0 -0.7071067811865474,
          0.0 -1.0 0.0,
          1.0 0.0 0.0,
          0.7071067811865476 0.0 -0.7071067811865474,
          0.0 1.0 0.0,
          1.0 0.0 0.0,
          0.0 1.0 0.0,
          0.7071067811865476 0.0 -0.7071067811865474,
          0.0 0.0 -1.0,
          0.7071067811865476 0.0 -0.7071067811865474,
          0.0 1.0 0.0,
          0.0 1.0 0.0,
          0.0 0.0 -1.0,
          0.7071067811865476 0.0 -0.7071067811865474,
          0.0 0.0 1.0,
          0.0 -1.0 0.0,
          -0.707104790976281 0.0 0.7071087713912126,
          0.0 -1.0 0.0,
          0.0 -1.0 0.0,
          -0.707104790976281 0.0 0.7071087713912126,
          -1.0 0.0 0.0,
          0.0 -1.0 0.0,
          -0.707104790976281 0.0 0.7071087713912126,
          -1.0 0.0 0.0,
          0.0 -1.0 0.0,
          0.0 1.0 0.0,
          -0.707104790976281 0.0 0.7071087713912126,
          -1.0 0.0 0.0,
          0.0 1.0 0.0,
          0.0 1.0 0.0,
          0.0 0.0 1.0,
          -0.707104790976281 0.0 0.7071087713912126,
          0.0 1.0 0.0,
          0.0 0.0 1.0,
          -0.707104790976281 0.0 0.7071087713912126,
          -0.707104790976281 0.0 -0.7071087713912126,
          -1.0 0.0 0.0,
          0.0 -1.0 0.0,
          0.0 0.0 -1.0,
          -0.707104790976281 0.0 -0.7071087713912126,
          0.0 -1.0 0.0,
          0.0 0.0 -1.0,
          -0.707104790976281 0.0 -0.7071087713912126,
          0.0 -1.0 0.0,
          0.0 -1.0 0.0,
          0.0 1.0 0.0,
          0.0 1.0 0.0,
          0.0 1.0 0.0,
          0.0 0.0 -1.0,
          -0.707104790976281 0.0 -0.7071087713912126,
          0.0 1.0 0.0,
          -0.707104790976281 0.0 -0.7071087713912126,
          -1.0 0.0 0.0,
          0.0 1.0 0.0,
          -0.707104790976281 0.0 -0.7071087713912126,
          -1.0 0.0 0.0,
          1.0 0.0 0.0,
          0.7071067811865476 0.0 0.7071067811865476,
          0.0 -1.0 0.0,
          0.0 -1.0 0.0,
          0.0 0.0 1.0,
          0.7071067811865476 0.0 0.7071067811865476,
          0.0 -1.0 0.0,
          0.0 0.0 1.0,
          0.7071067811865476 0.0 0.7071067811865476,
          0.0 -1.0 0.0,
          0.0 1.0 0.0,
          0.0 1.0 0.0,
          0.0 1.0 0.0,
          0.0 1.0 0.0,
          0.0 0.0 1.0,
          0.7071067811865476 0.0 0.7071067811865476,
          1.0 0.0 0.0,
          0.0 1.0 0.0,
          0.7071067811865476 0.0 0.7071067811865476,
          1.0 0.0 0.0,
          0.7071067811865476 0.0 0.7071067811865476,
          0.0 0.0 -1.0,
          0.7071067811865476 0.0 -0.7071067811865476,
          0.0 -1.0 0.0,
          0.0 -1.0 0.0,
          0.0 -1.0 0.0,
          0.0 -1.0 0.0,
          1.0 0.0 0.0,
          0.7071067811865476 0.0 -0.7071067811865476,
          0.0 -1.0 0.0,
          1.0 0.0 0.0,
          0.7071067811865476 0.0 -0.7071067811865476,
          0.0 1.0 0.0,
          1.0 0.0 0.0,
          0.0 1.0 0.0,
          0.7071067811865476 0.0 -0.7071067811865476,
          0.0 0.0 -1.0,
          0.7071067811865476 0.0 -0.7071067811865476,
          0.0 1.0 0.0,
          0.0 1.0 0.0,
          0.0 0.0 -1.0,
          0.7071067811865476 0.0 -0.7071067811865476,
          0.0 0.0 1.0,
          0.0 -1.0 0.0,
          -0.7071067811865476 0.0 0.7071067811865474,
          0.0 -1.0 0.0,
          0.0 -1.0 0.0,
          -0.7071067811865476 0.0 0.7071067811865474,
          -1.0 0.0 0.0,
          0.0 -1.0 0.0,
          -0.7071067811865476 0.0 0.7071067811865474,
          -1.0 0.0 0.0,
          0.0 -1.0 0.0,
          0.0 1.0 0.0,
          -0.7071067811865476 0.0 0.7071067811865474,
          -1.0 0.0 0.0,
          0.0 1.0 0.0,
          0.0 1.0 0.0,
          0.0 0.0 1.0,
          -0.7071067811865476 0.0 0.7071067811865474,
          0.0 1.0 0.0,
          0.0 0.0 1.0,
          -0.7071067811865476 0.0 0.7071067811865474,
          -0.7071067811865476 0.0 -0.7071067811865474,
          -1.0 0.0 0.0,
          0.0 -1.0 0.0,
          0.0 0.0 -1.0,
          -0.7071067811865476 0.0 -0.7071067811865474,
          0.0 -1.0 0.0,
          0.0 0.0 -1.0,
          -0.7071067811865476 0.0 -0.7071067811865474,
          0.0 -1.0 0.0,
          0.0 -1.0 0.0,
          0.0 1.0 0.0,
          0.0 1.0 0.0,
          0.0 1.0 0.0,
          0.0 0.0 -1.0,
          -0.7071067811865476 0.0 -0.7071067811865474,
          0.0 1.0 0.0,
          -0.7071067811865476 0.0 -0.7071067811865474,
          -1.0 0.0 0.0,
          0.0 1.0 0.0,
          -0.7071067811865476 0.0 -0.7071067811865474,
          -1.0 0.0 0.0,
          1.0 0.0 0.0,
          0.7071067811865476 0.0 0.7071067811865474,
          0.0 -1.0 0.0,
          0.0 -1.0 0.0,
          0.0 0.0 1.0,
          0.7071067811865476 0.0 0.7071067811865474,
          0.0 -1.0 0.0,
          0.0 0.0 1.0,
          0.7071067811865476 0.0 0.7071067811865474,
          0.0 -1.0 0.0,
          0.0 1.0 0.0,
          0.0 1.0 0.0,
          0.0 1.0 0.0,
          0.0 1.0 0.0,
          0.0 0.0 1.0,
          0.7071067811865476 0.0 0.7071067811865474,
          1.0 0.0 0.0,
          0.0 1.0 0.0,
          0.7071067811865476 0.0 0.7071067811865474,
          1.0 0.0 0.0,
          0.7071067811865476 0.0 0.7071067811865474,
          0.0 0.0 -1.0,
          0.7071067811865476 0.0 -0.7071067811865474,
          0.0 -1.0 0.0,
          0.0 -1.0 0.0,
          0.0 -1.0 0.0,
          0.0 -1.0 0.0,
          1.0 0.0 0.0,
          0.7071067811865476 0.0 -0.7071067811865474,
          0.0 -1.0 0.0,
          1.0 0.0 0.0,
          0.7071067811865476 0.0 -0.7071067811865474,
          0.0 1.0 0.0,
          1.0 0.0 0.0,
          0.0 1.0 0.0,
          0.7071067811865476 0.0 -0.7071067811865474,
          0.0 0.0 -1.0,
          0.7071067811865476 0.0 -0.7071067811865474,
          0.0 1.0 0.0,
          0.0 1.0 0.0,
          0.0 0.0 -1.0,
          0.7071067811865476 0.0 -0.7071067811865474 ] }
        normalIndex [
          4, 10, 30, -1,
          2, 20, 8, -1,
          3, 29, 67, -1,
          0, 46, 16, -1,
          1, 65, 48, -1,
          9, 13, 41, -1,
          5, 17, 12, -1,
          7, 23, 26, -1,
          6, 38, 22, -1,
          11, 15, 36, -1,
          18, 33, 39, -1,
          19, 49, 56, -1,
          14, 52, 31, -1,
          21, 37, 25, -1,
          27, 34, 82, -1,
          28, 40, 35, -1,
          24, 78, 63, -1,
          32, 54, 80, -1,
          45, 51, 68, -1,
          43, 60, 47, -1,
          44, 66, 71, -1,
          42, 69, 58, -1,
          50, 62, 57, -1,
          53, 59, 74, -1,
          55, 76, 81, -1,
          61, 72, 75, -1,
          64, 79, 70, -1,
          73, 83, 77, -1,
          88, 94, 114, -1,
          86, 104, 92, -1,
          87, 113, 151, -1,
          84, 130, 100, -1,
          85, 149, 132, -1,
          93, 97, 125, -1,
          89, 101, 96, -1,
          91, 107, 110, -1,
          90, 122, 106, -1,
          95, 99, 120, -1,
          102, 117, 123, -1,
          103, 133, 140, -1,
          98, 136, 115, -1,
          105, 121, 109, -1,
          111, 118, 166, -1,
          112, 124, 119, -1,
          108, 162, 147, -1,
          116, 138, 164, -1,
          129, 135, 152, -1,
          127, 144, 131, -1,
          128, 150, 155, -1,
          126, 153, 142, -1,
          134, 146, 141, -1,
          137, 143, 158, -1,
          139, 160, 165, -1,
          145, 156, 159, -1,
          148, 163, 154, -1,
          157, 167, 161, -1,
          172, 178, 198, -1,
          170, 188, 176, -1,
          171, 197, 235, -1,
          168, 214, 184, -1,
          169, 233, 216, -1,
          177, 181, 209, -1,
          173, 185, 180, -1,
          175, 191, 194, -1,
          174, 206, 190, -1,
          179, 183, 204, -1,
          186, 201, 207, -1,
          187, 217, 224, -1,
          182, 220, 199, -1,
          189, 205, 193, -1,
          195, 202, 250, -1,
          196, 208, 203, -1,
          192, 246, 231, -1,
          200, 222, 248, -1,
          213, 219, 236, -1,
          211, 228, 215, -1,
          212, 234, 239, -1,
          210, 237, 226, -1,
          218, 230, 225, -1,
          221, 227, 242, -1,
          223, 244, 249, -1,
          229, 240, 243, -1,
          232, 247, 238, -1,
          241, 251, 245, -1 ]
      }
    }
  ]
}

