#VRML V2.0 utf8
#modeled using blender3d http://blender.org

# 'SILT6'
Shape {
	appearance Appearance {
		material Material {
		}
	}
	geometry IndexedFaceSet {
		coord Coordinate {
			point [ 2.680001 -1.128646 -0.140002 2.608646 -1.200000 -0.068648 2.680001 5.728645 -0.140002 2.608646 5.800000 -0.068648 2.680001 -1.128646 0.139998 2.608646 -1.200000 0.068644 2.680001 5.728645 0.139998 2.608646 5.800000 0.068644 2.400001 -1.128646 -0.140002 2.471355 -1.200000 -0.068648 2.400001 5.728645 -0.140002 2.471355 5.800000 -0.068648 2.400001 -1.128646 0.139998 2.471355 -1.200000 0.068644 2.400001 5.728645 0.139998 2.471355 5.800000 0.068644 2.870355 0.000000 -0.508002 3.048001 0.000000 -0.330356 3.048001 1.016000 -0.330356 2.870355 1.016000 -0.508002 3.048001 0.000000 0.330352 2.870355 0.000000 0.507998 2.870355 1.016000 0.507998 3.048001 1.016000 0.330352 2.032001 0.000000 -0.330356 2.209647 0.000000 -0.508002 2.209647 1.016000 -0.508002 2.032001 1.016000 -0.330356 2.209647 0.000000 0.507998 2.032001 0.000000 0.330352 2.032001 1.016000 0.330352 2.209647 1.016000 0.507998 1.664001 -1.128646 -0.140002 1.592646 -1.200000 -0.068648 1.664001 5.728645 -0.140002 1.592646 5.800000 -0.068648 1.664001 -1.128646 0.139998 1.592646 -1.200000 0.068644 1.664001 5.728645 0.139998 1.592646 5.800000 0.068644 1.384001 -1.128646 -0.140002 1.455355 -1.200000 -0.068648 1.384001 5.728645 -0.140002 1.455355 5.800000 -0.068648 1.384001 -1.128646 0.139998 1.455355 -1.200000 0.068644 1.384001 5.728645 0.139998 1.455355 5.800000 0.068644 1.854355 0.000000 -0.508002 2.032001 0.000000 -0.330356 2.032001 1.016000 -0.330356 1.854355 1.016000 -0.508002 2.032001 0.000000 0.330352 1.854355 0.000000 0.507998 1.854355 1.016000 0.507998 2.032001 1.016000 0.330352 1.016001 0.000000 -0.330356 1.193647 0.000000 -0.508002 1.193647 1.016000 -0.508002 1.016001 1.016000 -0.330356 1.193647 0.000000 0.507998 1.016001 0.000000 0.330352 1.016001 1.016000 0.330352 1.193647 1.016000 0.507998 0.648001 -1.128646 -0.140002 0.576646 -1.200000 -0.068648 0.648001 5.728645 -0.140002 0.576646 5.800000 -0.068648 0.648001 -1.128646 0.139998 0.576646 -1.200000 0.068644 0.648001 5.728645 0.139998 0.576646 5.800000 0.068644 0.368001 -1.128646 -0.140002 0.439355 -1.200000 -0.068648 0.368001 5.728645 -0.140002 0.439355 5.800000 -0.068648 0.368001 -1.128646 0.139998 0.439355 -1.200000 0.068644 0.368001 5.728645 0.139998 0.439355 5.800000 0.068644 0.838354 0.000000 -0.508002 1.016001 0.000000 -0.330356 1.016001 1.016000 -0.330356 0.838354 1.016000 -0.508002 1.016001 0.000000 0.330352 0.838354 0.000000 0.507998 0.838354 1.016000 0.507998 1.016001 1.016000 0.330352 0.000001 0.000000 -0.330356 0.177647 0.000000 -0.508002 0.177647 1.016000 -0.508002 0.000001 1.016000 -0.330356 0.177647 0.000000 0.507998 0.000001 0.000000 0.330352 0.000001 1.016000 0.330352 0.177647 1.016000 0.507998 -0.367999 -1.128646 -0.140002 -0.439354 -1.200000 -0.068648 -0.367999 5.728645 -0.140002 -0.439354 5.800000 -0.068648 -0.367999 -1.128646 0.139998 -0.439354 -1.200000 0.068644 -0.367999 5.728645 0.139998 -0.439354 5.800000 0.068644 -0.647999 -1.128646 -0.140002 -0.576645 -1.200000 -0.068648 -0.647999 5.728645 -0.140002 -0.576645 5.800000 -0.068648 -0.647999 -1.128646 0.139998 -0.576645 -1.200000 0.068644 -0.647999 5.728645 0.139998 -0.576645 5.800000 0.068644 -0.177646 0.000000 -0.508002 0.000001 0.000000 -0.330356 0.000001 1.016000 -0.330356 -0.177646 1.016000 -0.508002 0.000001 0.000000 0.330352 -0.177646 0.000000 0.507998 -0.177646 1.016000 0.507998 0.000001 1.016000 0.330352 -1.015999 0.000000 -0.330356 -0.838353 0.000000 -0.508002 -0.838353 1.016000 -0.508002 -1.015999 1.016000 -0.330356 -0.838353 0.000000 0.507998 -1.015999 0.000000 0.330352 -1.015999 1.016000 0.330352 -0.838353 1.016000 0.507998 -1.384000 -1.128646 -0.140002 -1.455354 -1.200000 -0.068648 -1.384000 5.728645 -0.140002 -1.455354 5.800000 -0.068648 -1.384000 -1.128646 0.139998 -1.455354 -1.200000 0.068644 -1.384000 5.728645 0.139998 -1.455354 5.800000 0.068644 -1.663999 -1.128646 -0.140002 -1.592645 -1.200000 -0.068648 -1.663999 5.728645 -0.140002 -1.592645 5.800000 -0.068648 -1.663999 -1.128646 0.139998 -1.592645 -1.200000 0.068644 -1.663999 5.728645 0.139998 -1.592645 5.800000 0.068644 -1.193646 0.000000 -0.508002 -1.015999 0.000000 -0.330356 -1.015999 1.016000 -0.330356 -1.193646 1.016000 -0.508002 -1.015999 0.000000 0.330352 -1.193646 0.000000 0.507998 -1.193646 1.016000 0.507998 -1.015999 1.016000 0.330352 -2.031999 0.000000 -0.330356 -1.854353 0.000000 -0.508002 -1.854353 1.016000 -0.508002 -2.031999 1.016000 -0.330356 -1.854353 0.000000 0.507998 -2.031999 0.000000 0.330352 -2.031999 1.016000 0.330352 -1.854353 1.016000 0.507998 -2.399999 -1.128646 -0.140002 -2.471354 -1.200000 -0.068648 -2.399999 5.728645 -0.140002 -2.471354 5.800000 -0.068648 -2.399999 -1.128646 0.139998 -2.471354 -1.200000 0.068644 -2.399999 5.728645 0.139998 -2.471354 5.800000 0.068644 -2.679999 -1.128646 -0.140002 -2.608645 -1.200000 -0.068648 -2.679999 5.728645 -0.140002 -2.608645 5.800000 -0.068648 -2.679999 -1.128646 0.139998 -2.608645 -1.200000 0.068644 -2.679999 5.728645 0.139998 -2.608645 5.800000 0.068644 -2.209646 0.000000 -0.508002 -2.031999 0.000000 -0.330356 -2.031999 1.016000 -0.330356 -2.209646 1.016000 -0.508002 -2.031999 0.000000 0.330352 -2.209646 0.000000 0.507998 -2.209646 1.016000 0.507998 -2.031999 1.016000 0.330352 -3.047999 0.000000 -0.330356 -2.870353 0.000000 -0.508002 -2.870353 1.016000 -0.508002 -3.047999 1.016000 -0.330356 -2.870353 0.000000 0.507998 -3.047999 0.000000 0.330352 -3.047999 1.016000 0.330352 -2.870353 1.016000 0.507998 ]
		}
		colorPerVertex FALSE
		color Color {
			color [ 0.10 0.10 0.10 0.80 0.80 0.80 ]
		}
		colorIndex [ 1 1 1 1 1 1 1 1 1 1 1 1 1 1 0 0 0 0 0 0 0 0 0 0 0 0 0 0 1 1 1 1 1 1 1 1 1 1 1 1 1 1 0 0 0 0 0 0 0 0 0 0 0 0 0 0 1 1 1 1 1 1 1 1 1 1 1 1 1 1 0 0 0 0 0 0 0 0 0 0 0 0 0 0 1 1 1 1 1 1 1 1 1 1 1 1 1 1 0 0 0 0 0 0 0 0 0 0 0 0 0 0 1 1 1 1 1 1 1 1 1 1 1 1 1 1 0 0 0 0 0 0 0 0 0 0 0 0 0 0 1 1 1 1 1 1 1 1 1 1 1 1 1 1 0 0 0 0 0 0 0 0 0 0 0 0 0 0 1 1 1 1 1 1 1 1 1 1 1 1 1 1 0 0 0 0 0 0 0 0 0 0 0 0 0 0 1 1 1 1 1 1 1 1 1 1 1 1 1 1 0 0 0 0 0 0 0 0 0 0 0 0 0 0 1 1 1 1 1 1 1 1 1 1 1 1 1 1 0 0 0 0 0 0 0 0 0 0 0 0 0 0 1 1 1 1 1 1 1 1 1 1 1 1 1 1 0 0 0 0 0 0 0 0 0 0 0 0 0 0 1 1 1 1 1 1 1 1 1 1 1 1 1 1 0 0 0 0 0 0 0 0 0 0 0 0 0 0 1 1 1 1 1 1 1 1 1 1 1 1 1 1 0 0 0 0 0 0 0 0 0 0 0 0 0 0 ]
		coordIndex [ 5 9 1 -1 10 12 14 -1 15 3 11 -1 2 8 10 -1 14 4 6 -1 7 2 3 -1 1 4 5 -1 15 6 7 -1 13 4 12 -1 11 14 15 -1 13 8 9 -1 3 10 11 -1 1 8 0 -1 6 0 2 -1 22 26 31 -1 27 29 30 -1 23 19 22 -1 26 30 31 -1 19 25 26 -1 31 21 22 -1 19 17 16 -1 21 23 22 -1 29 31 30 -1 25 27 26 -1 23 17 18 -1 28 16 21 -1 17 21 16 -1 28 24 25 -1 37 41 33 -1 42 44 46 -1 47 35 43 -1 34 40 42 -1 46 36 38 -1 39 34 35 -1 33 36 37 -1 47 38 39 -1 45 36 44 -1 43 46 47 -1 45 40 41 -1 43 34 42 -1 41 32 33 -1 38 32 34 -1 54 58 63 -1 59 61 62 -1 55 51 54 -1 58 62 63 -1 51 57 58 -1 63 53 54 -1 51 49 48 -1 53 55 54 -1 61 63 62 -1 57 59 58 -1 55 49 50 -1 60 48 53 -1 49 53 48 -1 60 56 57 -1 69 73 65 -1 74 76 78 -1 79 67 75 -1 66 72 74 -1 78 68 70 -1 71 66 67 -1 65 68 69 -1 79 70 71 -1 69 76 77 -1 75 78 79 -1 77 72 73 -1 67 74 75 -1 65 72 64 -1 70 64 66 -1 86 90 95 -1 91 93 94 -1 87 83 86 -1 90 94 95 -1 83 89 90 -1 95 85 86 -1 83 81 80 -1 85 87 86 -1 93 95 94 -1 89 91 90 -1 87 81 82 -1 92 80 85 -1 81 85 80 -1 92 88 89 -1 101 105 97 -1 106 108 110 -1 111 99 107 -1 98 104 106 -1 110 100 102 -1 103 98 99 -1 97 100 101 -1 111 102 103 -1 109 100 108 -1 107 110 111 -1 109 104 105 -1 99 106 107 -1 105 96 97 -1 102 96 98 -1 118 122 127 -1 123 125 126 -1 119 115 118 -1 122 126 127 -1 115 121 122 -1 127 117 118 -1 115 113 112 -1 117 119 118 -1 125 127 126 -1 121 123 122 -1 119 113 114 -1 124 112 117 -1 113 117 112 -1 124 120 121 -1 133 137 129 -1 138 140 142 -1 143 131 139 -1 130 136 138 -1 142 132 134 -1 135 130 131 -1 129 132 133 -1 143 134 135 -1 133 140 141 -1 139 142 143 -1 141 136 137 -1 131 138 139 -1 137 128 129 -1 134 128 130 -1 150 154 159 -1 155 157 158 -1 151 147 150 -1 154 158 159 -1 147 153 154 -1 159 149 150 -1 147 145 144 -1 149 151 150 -1 157 159 158 -1 153 155 154 -1 151 145 146 -1 156 144 149 -1 145 149 144 -1 156 152 153 -1 165 169 161 -1 170 172 174 -1 175 163 171 -1 162 168 170 -1 174 164 166 -1 167 162 163 -1 161 164 165 -1 175 166 167 -1 165 172 173 -1 171 174 175 -1 173 168 169 -1 163 170 171 -1 169 160 161 -1 166 160 162 -1 182 186 191 -1 187 189 190 -1 183 179 182 -1 186 190 191 -1 179 185 186 -1 191 181 182 -1 179 177 176 -1 181 183 182 -1 189 191 190 -1 185 187 186 -1 183 177 178 -1 188 176 181 -1 177 181 176 -1 188 184 185 -1 5 13 9 -1 10 8 12 -1 15 7 3 -1 2 0 8 -1 14 12 4 -1 7 6 2 -1 1 0 4 -1 15 14 6 -1 13 5 4 -1 11 10 14 -1 13 12 8 -1 3 2 10 -1 1 9 8 -1 6 4 0 -1 22 19 26 -1 27 24 29 -1 23 18 19 -1 26 27 30 -1 19 16 25 -1 31 28 21 -1 19 18 17 -1 21 20 23 -1 29 28 31 -1 25 24 27 -1 23 20 17 -1 28 25 16 -1 17 20 21 -1 28 29 24 -1 37 45 41 -1 42 40 44 -1 47 39 35 -1 34 32 40 -1 46 44 36 -1 39 38 34 -1 33 32 36 -1 47 46 38 -1 45 37 36 -1 43 42 46 -1 45 44 40 -1 43 35 34 -1 41 40 32 -1 38 36 32 -1 54 51 58 -1 59 56 61 -1 55 50 51 -1 58 59 62 -1 51 48 57 -1 63 60 53 -1 51 50 49 -1 53 52 55 -1 61 60 63 -1 57 56 59 -1 55 52 49 -1 60 57 48 -1 49 52 53 -1 60 61 56 -1 69 77 73 -1 74 72 76 -1 79 71 67 -1 66 64 72 -1 78 76 68 -1 71 70 66 -1 65 64 68 -1 79 78 70 -1 69 68 76 -1 75 74 78 -1 77 76 72 -1 67 66 74 -1 65 73 72 -1 70 68 64 -1 86 83 90 -1 91 88 93 -1 87 82 83 -1 90 91 94 -1 83 80 89 -1 95 92 85 -1 83 82 81 -1 85 84 87 -1 93 92 95 -1 89 88 91 -1 87 84 81 -1 92 89 80 -1 81 84 85 -1 92 93 88 -1 101 109 105 -1 106 104 108 -1 111 103 99 -1 98 96 104 -1 110 108 100 -1 103 102 98 -1 97 96 100 -1 111 110 102 -1 109 101 100 -1 107 106 110 -1 109 108 104 -1 99 98 106 -1 105 104 96 -1 102 100 96 -1 118 115 122 -1 123 120 125 -1 119 114 115 -1 122 123 126 -1 115 112 121 -1 127 124 117 -1 115 114 113 -1 117 116 119 -1 125 124 127 -1 121 120 123 -1 119 116 113 -1 124 121 112 -1 113 116 117 -1 124 125 120 -1 133 141 137 -1 138 136 140 -1 143 135 131 -1 130 128 136 -1 142 140 132 -1 135 134 130 -1 129 128 132 -1 143 142 134 -1 133 132 140 -1 139 138 142 -1 141 140 136 -1 131 130 138 -1 137 136 128 -1 134 132 128 -1 150 147 154 -1 155 152 157 -1 151 146 147 -1 154 155 158 -1 147 144 153 -1 159 156 149 -1 147 146 145 -1 149 148 151 -1 157 156 159 -1 153 152 155 -1 151 148 145 -1 156 153 144 -1 145 148 149 -1 156 157 152 -1 165 173 169 -1 170 168 172 -1 175 167 163 -1 162 160 168 -1 174 172 164 -1 167 166 162 -1 161 160 164 -1 175 174 166 -1 165 164 172 -1 171 170 174 -1 173 172 168 -1 163 162 170 -1 169 168 160 -1 166 164 160 -1 182 179 186 -1 187 184 189 -1 183 178 179 -1 186 187 190 -1 179 176 185 -1 191 188 181 -1 179 178 177 -1 181 180 183 -1 189 188 191 -1 185 184 187 -1 183 180 177 -1 188 185 176 -1 177 180 181 -1 188 189 184 -1 ]
	}
}
